<?xml version="1.0" standalone="no"?>
<!DOCTYPE svg PUBLIC "-//W3C//DTD SVG 1.1//EN" "http://www.w3.org/Graphics/SVG/1.1/DTD/svg11.dtd" >
<svg xmlns="http://www.w3.org/2000/svg">
<metadata>
This is a custom SVG font generated by IcoMoon.
<iconset grid="16"></iconset>
</metadata>
<defs>
<font id="icomoon-small" horiz-adv-x="512" >
<font-face units-per-em="512" ascent="480" descent="-32" />
<missing-glyph horiz-adv-x="512" />
<glyph unicode="&#xe020;" d="M 352.00,64.00l0.00,18.502 c 75.674,30.814, 128.00,96.91, 128.00,173.498c0.00,106.039-100.288,192.00-224.00,192.00S 32.00,362.039, 32.00,256.00
	c0.00-76.588, 52.327-142.684, 128.00-173.498L 160.00,64.00 L 64.00,64.00 l-32.00,48.00l0.00-112.00 l 160.00,0.00 L 192.00,111.406 c-50.45,25.681-85.333,80.77-85.333,144.594
	c0.00,88.366, 66.859,160.00, 149.333,160.00c 82.474,0.00, 149.333-71.634, 149.333-160.00c0.00-63.824-34.883-118.913-85.333-144.594L 320.00,0.00 l 160.00,0.00 L 480.00,112.00 l-32.00-48.00
	L 352.00,64.00 z" />
<glyph unicode="&#xe013;" d="M 128.00,448.00l0.00-448.00 l 128.00,128.00l 128.00-128.00L 384.00,448.00 L 128.00,448.00 z M 352.00,85.255l-96.00,96.00l-96.00-96.00L 160.00,416.00 l 192.00,0.00 L 352.00,85.255 z" />
<glyph unicode="&#xe012;" d="M 463.637,364.892l-66.745,66.744C 386.34,442.188, 372.276,448.00, 357.293,448.00s-29.047-5.812-39.598-16.363l-82.746-82.745
		c-21.834-21.834-21.834-57.362,0.00-79.196l 1.373-1.373l 33.941,33.941l-1.373,1.373c-3.066,3.066-3.066,8.247,0.00,11.313l 82.746,82.746
		C 353.641,399.70, 356.04,400.00, 357.292,400.00s 3.651-0.299, 5.656-2.305l 66.745-66.744c 3.066-3.067, 3.066-8.249, 0.001-11.314l-82.747-82.747
		c-2.004-2.004-4.403-2.304-5.655-2.304s-3.651,0.30-5.656,2.306l-1.373,1.373l-33.94-33.942l 1.371-1.371
		c 10.553-10.554, 24.615-16.364, 39.60-16.364s 29.047,5.812, 39.598,16.363l 82.747,82.746C 485.47,307.53, 485.47,343.057, 463.637,364.892
		zM 275.678,179.678l-33.941-33.941l 1.373-1.373c 2.004-2.004, 2.305-4.403, 2.305-5.655c0.00-1.253-0.299-3.651-2.303-5.657
		l-82.747-82.745c-2.005-2.005-4.405-2.305-5.657-2.305s-3.652,0.30-5.657,2.305L 82.305,117.05C 80.30,119.055, 80.00,121.455, 80.00,122.707
		s 0.299,3.65, 2.305,5.656l 82.745,82.744c 2.005,2.006, 4.405,2.306, 5.657,2.306s 3.652-0.30, 5.657-2.306l 1.373-1.371l 33.941,33.94
		l-1.373,1.373c-10.552,10.552-24.615,16.363-39.598,16.363s-29.046-5.812-39.598-16.363l-82.744-82.743
		C 37.812,151.754, 32.00,137.689, 32.00,122.707s 5.812-29.047, 16.363-39.599l 66.745-66.745C 125.661,5.812, 139.724,0.00, 154.707,0.00
		s 29.046,5.812, 39.598,16.363l 82.747,82.746c 10.552,10.552, 16.361,24.615, 16.361,39.598s-5.812,29.047-16.363,39.598
		L 275.678,179.678zM 400.00,61.00c-4.862,0.00-9.725,1.854-13.435,5.565l-64.00,63.999c-7.422,7.42-7.422,19.449,0.00,26.869
			c 7.42,7.422, 19.448,7.422, 26.868,0.00l 64.00-64.00c 7.422-7.42, 7.422-19.448,0.00-26.868C 409.725,62.854, 404.862,61.00, 400.00,61.00zM 304.00,0.00c-8.837,0.00-16.00,7.163-16.00,16.00l0.00,64.00 c0.00,8.837, 7.163,16.00, 16.00,16.00s 16.00-7.163, 16.00-16.00l0.00-64.00 C 320.00,7.163, 312.837,0.00, 304.00,0.00zM 464.00,160.00l-64.00,0.00 c-8.837,0.00-16.00,7.163-16.00,16.00s 7.163,16.00, 16.00,16.00l 64.00,0.00 c 8.837,0.00, 16.00-7.163, 16.00-16.00S 472.837,160.00, 464.00,160.00zM 112.00,387.00c 4.862,0.00, 9.725-1.854, 13.435-5.565l 64.00-64.00c 7.421-7.42, 7.421-19.449,0.00-26.869c-7.42-7.422-19.449-7.422-26.869,0.00
			l-64.00,64.00c-7.421,7.42-7.421,19.449,0.00,26.869C 102.275,385.146, 107.138,387.00, 112.00,387.00zM 208.00,448.00c 8.837,0.00, 16.00-7.163, 16.00-16.00l0.00-64.00 c0.00-8.837-7.163-16.00-16.00-16.00s-16.00,7.163-16.00,16.00L 192.00,432.00 C 192.00,440.837, 199.163,448.00, 208.00,448.00zM 48.00,288.00l 64.00,0.00 c 8.837,0.00, 16.00-7.163, 16.00-16.00s-7.163-16.00-16.00-16.00L 48.00,256.00 c-8.837,0.00-16.00,7.163-16.00,16.00S 39.163,288.00, 48.00,288.00z" />
<glyph unicode="&#xe011;" d="M 463.637,364.892l-66.745,66.744C 386.34,442.188, 372.276,448.00, 357.293,448.00s-29.047-5.812-39.598-16.363l-82.746-82.745
		c-21.834-21.834-21.834-57.362,0.00-79.196l 1.373-1.373l 33.941,33.941l-1.373,1.373c-3.066,3.066-3.066,8.247,0.00,11.313l 82.746,82.746
		C 353.641,399.70, 356.04,400.00, 357.292,400.00s 3.651-0.299, 5.656-2.305l 66.745-66.744c 3.066-3.067, 3.066-8.249, 0.001-11.314l-82.747-82.747
		c-2.004-2.004-4.403-2.304-5.655-2.304s-3.651,0.30-5.656,2.306l-1.373,1.373l-33.94-33.942l 1.371-1.371
		c 10.553-10.554, 24.615-16.364, 39.60-16.364s 29.047,5.812, 39.598,16.363l 82.747,82.746C 485.47,307.53, 485.47,343.057, 463.637,364.892
		zM 275.678,179.678l-33.941-33.941l 1.373-1.373c 2.004-2.004, 2.305-4.403, 2.305-5.655c0.00-1.253-0.299-3.651-2.303-5.657
		l-82.747-82.745c-2.005-2.005-4.405-2.305-5.657-2.305s-3.652,0.30-5.657,2.305L 82.305,117.05C 80.30,119.055, 80.00,121.455, 80.00,122.707
		s 0.299,3.65, 2.305,5.656l 82.745,82.744c 2.005,2.006, 4.405,2.306, 5.657,2.306s 3.652-0.30, 5.657-2.306l 1.373-1.371l 33.941,33.94
		l-1.373,1.373c-10.552,10.552-24.615,16.363-39.598,16.363s-29.046-5.812-39.598-16.363l-82.744-82.743
		C 37.812,151.754, 32.00,137.689, 32.00,122.707s 5.812-29.047, 16.363-39.599l 66.745-66.745C 125.661,5.812, 139.724,0.00, 154.707,0.00
		s 29.046,5.812, 39.598,16.363l 82.747,82.746c 10.552,10.552, 16.361,24.615, 16.361,39.598s-5.812,29.047-16.363,39.598
		L 275.678,179.678zM 176.00,125.00c-4.862,0.00-9.725,1.855-13.435,5.564c-7.42,7.42-7.42,19.449,0.00,26.869l 160.00,160.00c 7.42,7.42, 19.448,7.42, 26.868,0.00
		c 7.422-7.42, 7.422-19.45,0.00-26.87l-160.00-160.00C 185.725,126.855, 180.862,125.00, 176.00,125.00z" />
<glyph unicode="&#xe010;" d="M 288.00,339.337L 288.00,448.00 l 168.001-168.00L 288.00,112.00L 288.00,223.048 C 92.547,227.633, 130.50,99.50, 160.00,0.00C 16.00,160.00, 53.954,345.437, 288.00,339.337z" />
<glyph unicode="&#xe00f;" d="M 352.00,0.00c 29.50,99.50, 67.453,227.633-128.00,223.048L 224.00,112.00 L 55.999,280.00L 224.00,448.00l0.00-108.663 C 458.046,345.437, 496.00,160.00, 352.00,0.00z" />
<glyph unicode="&#xe00e;" d="M 128.214,267.637c 52.90,0.00, 95.786-45.585, 95.786-101.819C 224.00,109.586, 181.114,64.00, 128.214,64.00
	c-52.901,0.00-95.786,45.585-95.786,101.818L 32.00,180.364C 32.00,292.829, 117.77,384.00, 223.572,384.00l0.00-58.182 c-36.55,0.00-70.913-15.13-96.758-42.602
	c-4.977-5.289-9.517-10.917-13.612-16.828C 118.094,267.208, 123.105,267.637, 128.214,267.637zM 384.214,267.637c 52.90,0.00, 95.786-45.585, 95.786-101.819C 480.00,109.586, 437.114,64.00, 384.214,64.00
	c-52.901,0.00-95.786,45.585-95.786,101.818L 288.00,180.364C 288.00,292.829, 373.77,384.00, 479.572,384.00l0.00-58.182 c-36.55,0.00-70.913-15.13-96.758-42.602
	c-4.978-5.289-9.518-10.917-13.612-16.828C 374.094,267.208, 379.105,267.637, 384.214,267.637z" />
<glyph unicode="&#xe00c;" d="M 32.00,384.00L 480.00,384.00L 480.00,320.00L 32.00,320.00zM 192.00,192.00L 480.00,192.00L 480.00,128.00L 192.00,128.00zM 192.00,288.00L 480.00,288.00L 480.00,224.00L 192.00,224.00zM 32.00,96.00L 480.00,96.00L 480.00,32.00L 32.00,32.00zM 32.00,288.00L 144.00,208.00L 32.00,128.00 z" />
<glyph unicode="&#xe00d;" d="M 32.00,384.00L 480.00,384.00L 480.00,320.00L 32.00,320.00zM 32.00,192.00L 320.00,192.00L 320.00,128.00L 32.00,128.00zM 32.00,288.00L 320.00,288.00L 320.00,224.00L 32.00,224.00zM 32.00,96.00L 480.00,96.00L 480.00,32.00L 32.00,32.00zM 480.00,288.00L 368.00,208.00L 480.00,128.00 z" />
<glyph unicode="&#xe00b;" d="M 192.00,416.00L 480.00,416.00L 480.00,352.00L 192.00,352.00zM 192.00,256.00L 480.00,256.00L 480.00,192.00L 192.00,192.00zM 192.00,96.00L 480.00,96.00L 480.00,32.00L 192.00,32.00zM 160.00,215.00L 160.00,288.00L 128.00,288.00L 128.00,448.00L 64.00,448.00L 64.00,416.00L 96.00,416.00L 96.00,288.00L 64.00,288.00L 64.00,256.00L 128.00,256.00L 128.00,231.00L 64.00,201.00L 64.00,128.00L 128.00,128.00L 128.00,96.00L 64.00,96.00L 64.00,64.00L 128.00,64.00L 128.00,32.00L 64.00,32.00L 64.00,0.00L 160.00,0.00L 160.00,160.00L 96.00,160.00L 96.00,185.00 	z" />
<glyph unicode="&#xe00a;" d="M 192.00,416.00L 480.00,416.00L 480.00,352.00L 192.00,352.00zM 192.00,256.00L 480.00,256.00L 480.00,192.00L 192.00,192.00zM 192.00,96.00L 480.00,96.00L 480.00,32.00L 192.00,32.00zM 64.00,384.00A32.00,32.00 1620.00 1 1 128.00,384A32.00,32.00 1620.00 1 1 64.00,384zM 64.00,224.00A32.00,32.00 1620.00 1 1 128.00,224A32.00,32.00 1620.00 1 1 64.00,224zM 64.00,64.00A32.00,32.00 1620.00 1 1 128.00,64A32.00,32.00 1620.00 1 1 64.00,64z" />
<glyph unicode="&#xe009;" d="M 444.00,288.00l-28.00,0.00 L 416.00,416.00 l 32.00,0.00 L 448.00,448.00 L 288.00,448.00 l0.00-32.00 l 32.00,0.00 l0.00-128.00 L 192.00,288.00 L 192.00,416.00 l 32.00,0.00 L 224.00,448.00 L 64.00,448.00 l0.00-32.00 l 32.00,0.00 l0.00-128.00 L 68.00,288.00 c-19.80,0.00-36.00-16.20-36.00-36.00l0.00-216.00 c0.00-19.80, 16.20-36.00, 36.00-36.00l 120.00,0.00 
	c 19.80,0.00, 36.00,16.20, 36.00,36.00L 224.00,192.00 l 64.00,0.00 l0.00-156.00 c0.00-19.80, 16.20-36.00, 36.00-36.00l 120.00,0.00 c 19.80,0.00, 36.00,16.20, 36.00,36.00L 480.00,252.00 C 480.00,271.80, 463.80,288.00, 444.00,288.00z M 174.00,32.00L 82.00,32.00 
	c-9.90,0.00-18.00,7.20-18.00,16.00s 8.10,16.00, 18.00,16.00l 92.00,0.00 c 9.90,0.00, 18.00-7.20, 18.00-16.00S 183.90,32.00, 174.00,32.00z M 272.00,224.00l-32.00,0.00 c-8.80,0.00-16.00,7.20-16.00,16.00s 7.20,16.00, 16.00,16.00l 32.00,0.00 
	c 8.80,0.00, 16.00-7.20, 16.00-16.00S 280.80,224.00, 272.00,224.00z M 430.00,32.00l-92.00,0.00 c-9.90,0.00-18.00,7.20-18.00,16.00s 8.10,16.00, 18.00,16.00l 92.00,0.00 c 9.90,0.00, 18.00-7.20, 18.00-16.00S 439.90,32.00, 430.00,32.00z" />
<glyph unicode="&#xe008;" d="M 352.00,288.00l0.00,80.00 c0.00,8.80-7.20,16.00-16.00,16.00l-80.00,0.00 L 256.00,416.00 c0.00,17.60-14.40,32.00-32.00,32.00l-64.00,0.00 c-17.602,0.00-32.00-14.40-32.00-32.00l0.00-32.00 L 48.00,384.00 c-8.801,0.00-16.00-7.20-16.00-16.00l0.00-256.00 
	c0.00-8.80, 7.199-16.00, 16.00-16.00l 112.00,0.00 l0.00-96.00 l 192.00,0.00 l 96.00,96.00L 448.00,288.00 L 352.00,288.00 z M 160.00,415.943c 0.017,0.019, 0.036,0.039, 0.057,0.057l 63.884,0.00 
	c 0.021-0.018, 0.041-0.038, 0.059-0.057L 224.00,384.00 l-64.00,0.00 L 160.00,415.943 L 160.00,415.943z M 96.00,320.00l0.00,32.00 l 192.00,0.00 l0.00-32.00 L 96.00,320.00 z M 352.00,45.255L 352.00,96.00 l 50.745,0.00 L 352.00,45.255z
	 M 416.00,128.00l-96.00,0.00 l0.00-96.00 L 192.00,32.00 L 192.00,256.00 l 224.00,0.00 L 416.00,128.00 z" />
<glyph unicode="&#xe031;" d="M 416.00,320.00l-96.00,0.00 l0.00,32.00 l-96.00,96.00L 32.00,448.00 l0.00-352.00 l 192.00,0.00 l0.00-96.00 l 288.00,0.00 L 512.00,224.00 L 416.00,320.00z M 416.00,274.745L 466.745,224.00L 416.00,224.00 L 416.00,274.745 z M 224.00,402.745L 274.745,352.00
	L 224.00,352.00 L 224.00,402.745 z M 64.00,416.00l 128.00,0.00 l0.00-96.00 l 96.00,0.00 l0.00-192.00 L 64.00,128.00 L 64.00,416.00 z M 480.00,32.00L 256.00,32.00 l0.00,64.00 l 64.00,0.00 L 320.00,288.00 l 64.00,0.00 l0.00-96.00 l 96.00,0.00 L 480.00,32.00 z" />
<glyph unicode="&#xe007;" d="M 432.204,144.934c-23.235,23.235-53.469,34.002-80.541,31.403L 320.00,208.00l 96.00,96.00c0.00,0.00, 64.00,64.00,0.00,128.00L 256.00,272.00L 96.00,432.00
		c-64.00-64.00,0.00-128.00,0.00-128.00l 96.00-96.00l-31.663-31.663c-27.072,2.599-57.305-8.169-80.54-31.403c-37.49-37.49-42.556-93.209-11.313-124.45
		c 31.241-31.241, 86.96-26.177, 124.45,11.313c 23.235,23.234, 34.001,53.469, 31.403,80.54L 256.00,144.00l 31.664-31.664
		c-2.598-27.072, 8.168-57.305, 31.403-80.539c 37.489-37.49, 93.209-42.556, 124.449-11.313
		C 474.76,51.725, 469.694,107.443, 432.204,144.934z M 176.562,100.711c-1.106-12.166-7.51-24.913-17.57-34.973
		C 147.886,54.631, 133.452,48.00, 120.383,48.00c-5.262,0.00-12.649,1.114-17.958,6.424c-10.703,10.702-8.688,36.566, 11.313,56.568
		c 11.106,11.107, 25.54,17.738, 38.609,17.738c 5.262,0.00, 12.649-1.114, 17.958-6.424C 176.861,115.751, 177.04,105.962, 176.562,100.711z
		 M 256.00,176.00c-17.673,0.00-32.00,14.327-32.00,32.00s 14.327,32.00, 32.00,32.00s 32.00-14.327, 32.00-32.00S 273.673,176.00, 256.00,176.00z M 409.576,54.424
		c-5.31-5.31-12.696-6.424-17.958-6.424c-13.069,0.00-27.503,6.631-38.609,17.738c-10.061,10.06-16.464,22.807-17.569,34.973
		c-0.479,5.251-0.30,15.04, 6.257,21.596c 5.309,5.311, 12.695,6.424, 17.958,6.424c 13.068,0.00, 27.503-6.631, 38.608-17.737
		C 418.265,90.99, 420.279,65.126, 409.576,54.424z" />
<glyph unicode="&#xe006;" d="M 32.00,384.00L 480.00,384.00L 480.00,320.00L 32.00,320.00zM 32.00,192.00L 480.00,192.00L 480.00,128.00L 32.00,128.00zM 32.00,288.00L 480.00,288.00L 480.00,224.00L 32.00,224.00zM 32.00,96.00L 480.00,96.00L 480.00,32.00L 32.00,32.00z" />
<glyph unicode="&#xe004;" d="M 32.00,384.00L 480.00,384.00L 480.00,320.00L 32.00,320.00zM 32.00,192.00L 480.00,192.00L 480.00,128.00L 32.00,128.00zM 128.00,288.00L 384.00,288.00L 384.00,224.00L 128.00,224.00zM 128.00,96.00L 384.00,96.00L 384.00,32.00L 128.00,32.00z" />
<glyph unicode="&#xe005;" d="M 32.00,384.00L 480.00,384.00L 480.00,320.00L 32.00,320.00zM 32.00,192.00L 480.00,192.00L 480.00,128.00L 32.00,128.00zM 192.00,288.00L 480.00,288.00L 480.00,224.00L 192.00,224.00zM 192.00,96.00L 480.00,96.00L 480.00,32.00L 192.00,32.00z" />
<glyph unicode="&#xe003;" d="M 32.00,384.00L 480.00,384.00L 480.00,320.00L 32.00,320.00zM 32.00,192.00L 480.00,192.00L 480.00,128.00L 32.00,128.00zM 32.00,288.00L 320.00,288.00L 320.00,224.00L 32.00,224.00zM 32.00,96.00L 320.00,96.00L 320.00,32.00L 32.00,32.00z" />
<glyph unicode="&#xe02d;" d="M 480.00,224.00l-4.571,0.00 L 347.062,224.00 c-25.039,17.71-57.215,27.43-91.062,27.43c-44.603,0.00-82.286,25.121-82.286,54.856
	c0.00,29.735, 37.683,54.857, 82.286,54.857c 37.529,0.00, 70.154-17.788, 79.56-41.143l 56.508,0.00 c-3.965,25.322-18.79,48.984-42.029,66.413
	C 324.599,405.493, 291.201,416.00, 256.00,416.00c-35.202,0.00-68.598-10.507-94.037-29.587c-27.394-20.545-43.106-49.751-43.106-80.127
	s 15.712-59.582, 43.106-80.127c 0.978-0.733, 1.971-1.449, 2.973-2.158L 36.571,224.001 L 32.00,224.001 l0.00-32.00 l 256.266,0.00 c 29.104-8.553, 50.021-28.135, 50.021-50.286
	c0.00-29.734-37.684-54.855-82.286-54.855c-37.53,0.00-70.154,17.787-79.559,41.143l-56.508,0.00 c 3.965-25.32, 18.791-48.984, 42.03-66.413
	C 187.402,42.508, 220.798,32.00, 256.00,32.00c 35.201,0.00, 68.599,10.508, 94.037,29.587c 27.395,20.545, 43.104,49.751, 43.104,80.127
	c0.00,17.649-5.327,34.896-15.147,50.286L 480.00,192.00 L 480.00,224.00 z" />
<glyph unicode="&#xe02c;" d="M 96.00,64.00l 288.00,0.00 l0.00-32.00 L 96.00,32.00 L 96.00,64.00 zM 320.00,416.00l0.00-192.00 c0.00-15.656-7.35-30.812-20.695-42.676C 283.834,167.573, 262.771,160.00, 240.00,160.00c-22.772,0.00-43.834,7.573-59.304,21.324
	C 167.35,193.188, 160.00,208.344, 160.00,224.00L 160.00,416.00 L 96.00,416.00 l0.00-192.00 c0.00-70.691, 64.471-128.00, 144.00-128.00c 79.529,0.00, 144.00,57.309, 144.00,128.00L 384.00,416.00 L 320.00,416.00 z" />
<glyph unicode="&#xe02b;" d="M 416.00,416.00l0.00-32.00 l-72.00,0.00 L 216.00,64.00l 72.00,0.00 l0.00-32.00 L 64.00,32.00 l0.00,32.00 l 72.00,0.00 L 264.00,384.00l-72.00,0.00 L 192.00,416.00 L 416.00,416.00 z" />
<glyph unicode="&#xe02a;" d="M 312.721,232.909C 336.758,251.984, 352.00,280.337, 352.00,312.00c0.00,57.438-50.145,104.00-112.00,104.00L 128.00,416.00 l0.00-384.00 l 144.00,0.00 
	c 61.856,0.00, 112.00,46.562, 112.00,104.00C 384.00,180.098, 354.441,217.781, 312.721,232.909z M 192.00,328.00c0.00,13.255, 10.745,24.00, 24.00,24.00l 33.602,0.00 
	C 270.809,352.00, 288.00,330.51, 288.00,304.00s-17.191-48.00-38.398-48.00L 192.00,256.00 L 192.00,328.00 z M 273.60,96.00L 216.00,96.00 c-13.255,0.00-24.00,10.745-24.00,24.00l0.00,72.00 l 81.60,0.00 
	c 21.209,0.00, 38.40-21.49, 38.40-48.00S 294.809,96.00, 273.60,96.00z" />
<glyph unicode="&#xe001;" d="M 425.373,358.627l-66.746,66.745C 346.183,437.818, 321.60,448.00, 304.00,448.00L 96.00,448.00 c-17.60,0.00-32.00-14.40-32.00-32.00l0.00-384.00 c0.00-17.60, 14.40-32.00, 32.00-32.00l 320.00,0.00 
	c 17.60,0.00, 32.00,14.40, 32.00,32.00L 448.00,304.00 C 448.00,321.60, 437.817,346.182, 425.373,358.627z M 402.745,336.001c 3.396-3.398, 6.896-9.581, 9.447-16.001L 320.00,320.00 
	L 320.00,412.193 c 6.42-2.55, 12.602-6.05, 16.00-9.448L 402.745,336.001z M 415.942,32.00L 96.057,32.00 c-0.02,0.017-0.041,0.038-0.057,0.058L 96.00,415.943 
	c 0.017,0.02, 0.038,0.041, 0.057,0.057L 288.00,416.00 l0.00-128.00 l 128.00,0.00 l0.00-255.942 C 415.983,32.038, 415.962,32.017, 415.942,32.00z" />
<glyph unicode="&#xe000;" d="M 480.00,40.00L 480.00,335.969 L 368.031,448.00L 72.00,448.00 c-22.091,0.00-40.00-17.908-40.00-40.00l0.00-368.00 c0.00-22.092, 17.909-40.00, 40.00-40.00l 368.00,0.00 
	C 462.092,0.00, 480.00,17.908, 480.00,40.00z M 288.00,384.00l 32.00,0.00 l0.00-96.00 l-32.00,0.00 L 288.00,384.00 z M 352.00,64.00L 160.00,64.00 L 160.00,191.941 c 0.017,0.021, 0.038,0.041, 0.058,0.059l 191.885,0.00 
	c 0.02-0.018, 0.041-0.038, 0.058-0.059L 352.00,64.00L 352.00,64.00z M 416.00,64.00l-32.00,0.00 L 384.00,192.00 c0.00,17.60-14.40,32.00-32.00,32.00L 160.00,224.00 c-17.60,0.00-32.00-14.40-32.00-32.00l0.00-128.00 L 96.00,64.00 L 96.00,384.00 
	l 32.00,0.00 l0.00-96.00 c0.00-17.60, 14.40-32.00, 32.00-32.00l 160.00,0.00 c 17.60,0.00, 32.00,14.40, 32.00,32.00l0.00,85.505 l 64.00-64.036L 416.00,64.00 z" />
<glyph unicode="&#xe01b;" d="M 32.00,384.00l0.00-352.00 l 448.00,0.00 L 480.00,384.00 L 32.00,384.00 z M 192.00,160.00l0.00,64.00 l 128.00,0.00 l0.00-64.00 L 192.00,160.00 z M 320.00,128.00l0.00-64.00 L 192.00,64.00 l0.00,64.00 L 320.00,128.00 z M 320.00,320.00l0.00-64.00 L 192.00,256.00 l0.00,64.00 L 320.00,320.00 z M 160.00,320.00l0.00-64.00 L 64.00,256.00 l0.00,64.00 L 160.00,320.00 
	z M 64.00,224.00l 96.00,0.00 l0.00-64.00 L 64.00,160.00 L 64.00,224.00 z M 352.00,224.00l 96.00,0.00 l0.00-64.00 l-96.00,0.00 L 352.00,224.00 z M 352.00,256.00l0.00,64.00 l 96.00,0.00 l0.00-64.00 L 352.00,256.00 z M 64.00,128.00l 96.00,0.00 l0.00-64.00 L 64.00,64.00 L 64.00,128.00 z M 352.00,64.00l0.00,64.00 l 96.00,0.00 l0.00-64.00 L 352.00,64.00 z" />
<glyph unicode="&#xe021;" d="M 256.00,410.00c 49.683,0.00, 96.391-19.347, 131.521-54.478S 442.00,273.683, 442.00,224.00s-19.348-96.391-54.479-131.521S 305.683,38.00, 256.00,38.00
	s-96.391,19.348-131.522,54.479S 70.00,174.317, 70.00,224.00s 19.347,96.391, 54.478,131.522S 206.317,410.00, 256.00,410.00 M 256.00,448.00
	C 132.288,448.00, 32.00,347.712, 32.00,224.00s 100.288-224.00, 224.00-224.00s 224.00,100.288, 224.00,224.00S 379.712,448.00, 256.00,448.00L 256.00,448.00zM 160.00,288.00A32.00,32.00 1620.00 1 1 224.00,288A32.00,32.00 1620.00 1 1 160.00,288zM 288.00,288.00A32.00,32.00 1620.00 1 1 352.00,288A32.00,32.00 1620.00 1 1 288.00,288zM 256.00,152.00c-50.92,0.00-96.28,18.437-125.583,47.164C 141.98,140.36, 193.806,96.00, 256.00,96.00c 62.194,0.00, 114.02,44.36, 125.584,103.164
	C 352.28,170.437, 306.92,152.00, 256.00,152.00z" />
<glyph unicode="&#xe023;" d="M 240.00,288.00L 144.00,384.00L 208.00,448.00L 32.00,448.00L 32.00,272.00L 96.00,336.00L 192.00,240.00 zM 320.00,240.00L 416.00,336.00L 480.00,272.00L 480.00,448.00L 304.00,448.00L 368.00,384.00L 272.00,288.00 zM 272.00,160.00L 368.00,64.00L 304.00,0.00L 480.00,0.00L 480.00,176.00L 416.00,112.00L 320.00,208.00 zM 192.00,208.00L 96.00,112.00L 32.00,176.00L 32.00,0.00L 208.00,0.00L 144.00,64.00L 240.00,160.00 z" />
<glyph unicode="&#xe01c;" d="M 32.00,256.00L 480.00,256.00L 480.00,192.00L 32.00,192.00z" />
<glyph unicode="&#xe01d;" d="M 32.00,96.00l 256.00,0.00 l0.00-64.00 L 32.00,32.00 L 32.00,96.00 z M 384.00,384.00L 273.721,384.00 l-91.883-256.00l-66.144,0.00 l 91.881,256.00L 96.00,384.00 L 96.00,448.00 l 288.00,0.00 L 384.00,384.00 z M 464.887,32.00L 400.00,96.887
	L 335.113,32.00L 304.00,63.113L 368.887,128.00L 304.00,192.887L 335.113,224.00L 400.00,159.113L 464.887,224.00L 496.00,192.887L 431.113,128.00L 496.00,63.113
	L 464.887,32.00z" />
<glyph unicode="&#xe022;" d="M 128.00,416.00l 256.00,0.00 l0.00-64.00 L 128.00,352.00 L 128.00,416.00 z M 448.00,320.00L 64.00,320.00 c-17.60,0.00-32.00-14.40-32.00-32.00l0.00-128.00 c0.00-17.60, 14.398-32.00, 32.00-32.00l 64.00,0.00 l0.00-96.00 l 256.00,0.00 l0.00,96.00 l 64.00,0.00 
	c 17.60,0.00, 32.00,14.40, 32.00,32.00L 480.00,288.00 C 480.00,305.60, 465.60,320.00, 448.00,320.00z M 352.00,64.00L 160.00,64.00 L 160.00,192.00 l 192.00,0.00 L 352.00,64.00 z M 455.20,272.00c0.00-12.813-10.387-23.20-23.199-23.20
	S 408.80,259.187, 408.80,272.00s 10.389,23.20, 23.201,23.20C 444.814,295.20, 455.20,284.813, 455.20,272.00z" />
<glyph unicode="&#xe02e;" d="M 192.00,416.00c-61.856,0.00-112.00-50.144-112.00-112.00s 50.144-112.00, 112.00-112.00l0.00-160.00 l 64.00,0.00 L 256.00,352.00 l 32.00,0.00 l0.00-320.00 l 64.00,0.00 L 352.00,352.00 l 64.00,0.00 L 416.00,416.00 L 192.00,416.00 z" />
<glyph unicode="&#xe02f;" d="M 224.00,416.00c-61.856,0.00-112.00-50.144-112.00-112.00s 50.144-112.00, 112.00-112.00l0.00-160.00 l 64.00,0.00 L 288.00,352.00 l 32.00,0.00 l0.00-320.00 l 64.00,0.00 L 384.00,352.00 l 64.00,0.00 L 448.00,416.00 L 224.00,416.00 zM 32.00,32.00L 144.00,128.00L 32.00,224.00 z" />
<glyph unicode="&#xe030;" d="M 160.00,416.00C 98.144,416.00, 48.00,365.856, 48.00,304.00s 50.144-112.00, 112.00-112.00l0.00-160.00 l 64.00,0.00 L 224.00,352.00 l 32.00,0.00 l0.00-320.00 l 64.00,0.00 L 320.00,352.00 l 64.00,0.00 L 384.00,416.00 L 160.00,416.00 zM 480.00,224.00L 368.00,128.00L 480.00,32.00 z" />
<glyph unicode="&#xe026;" d="M 256.00,288.00L 320.00,288.00L 320.00,256.00L 256.00,256.00zM 256.00,96.00L 320.00,96.00L 320.00,64.00L 256.00,64.00zM 288.00,192.00L 352.00,192.00L 352.00,160.00L 288.00,160.00zM 384.00,192.00L 384.00,96.00L 352.00,96.00L 352.00,64.00L 416.00,64.00L 416.00,192.00 	zM 192.00,192.00L 256.00,192.00L 256.00,160.00L 192.00,160.00zM 160.00,96.00L 224.00,96.00L 224.00,64.00L 160.00,64.00zM 160.00,288.00L 224.00,288.00L 224.00,256.00L 160.00,256.00zM 96.00,384.00L 96.00,256.00L 128.00,256.00L 128.00,352.00L 160.00,352.00L 160.00,384.00 	zM 352.00,256.00L 416.00,256.00L 416.00,384.00L 384.00,384.00L 384.00,288.00L 352.00,288.00 	zM 32.00,448.00l0.00-448.00 l 448.00,0.00 L 480.00,448.00 L 32.00,448.00 z M 448.00,32.00L 64.00,32.00 L 64.00,416.00 l 384.00,0.00 L 448.00,32.00 zM 96.00,192.00L 96.00,64.00L 128.00,64.00L 128.00,160.00L 160.00,160.00L 160.00,192.00 	zM 288.00,384.00L 352.00,384.00L 352.00,352.00L 288.00,352.00zM 192.00,384.00L 256.00,384.00L 256.00,352.00L 192.00,352.00z" />
<glyph unicode="&#xe027;" d="M 408.00,448.00l 8.00-192.00L 96.00,256.00 l 8.00,192.00l 16.00,0.00 l 8.00-160.00l 256.00,0.00 l 8.00,160.00L 408.00,448.00 z M 104.00,0.00l-8.00,160.00l 320.00,0.00 l-8.00-160.00l-16.00,0.00 l-8.00,128.00L 128.00,128.00 l-8.00-128.00L 104.00,0.00 zM 32.00,224.00L 96.00,224.00L 96.00,192.00L 32.00,192.00zM 128.00,224.00L 192.00,224.00L 192.00,192.00L 128.00,192.00zM 224.00,224.00L 288.00,224.00L 288.00,192.00L 224.00,192.00zM 320.00,224.00L 384.00,224.00L 384.00,192.00L 320.00,192.00zM 416.00,224.00L 480.00,224.00L 480.00,192.00L 416.00,192.00z" />
<glyph unicode="&#xe024;" d="M 480.00,416.00L 480.00,448.00 l-96.00,0.00 c-17.601,0.00-32.00-14.40-32.00-32.00l0.00-160.00 c0.00-7.928, 2.929-15.201, 7.748-20.807L 208.00,105.00l-71.00,74.00l-41.00-35.00l 112.00-144.00l 208.00,224.00l 64.00,0.00 
		l0.00,32.00 l-96.00,0.00 L 384.00,416.00 L 480.00,416.00 zM 128.00,224.00l 32.00,0.00 L 160.00,416.00 c0.00,17.60-14.40,32.00-32.00,32.00L 64.00,448.00 c-17.60,0.00-32.00-14.40-32.00-32.00l0.00-192.00 l 32.00,0.00 l0.00,96.00 l 64.00,0.00 L 128.00,224.00 z M 64.00,352.00L 64.00,416.00 l 64.00,0.00 l0.00-64.00 L 64.00,352.00 zM 320.00,256.00l0.00,48.00 c0.00,17.60-4.40,32.00-22.00,32.00c 17.60,0.00, 22.00,14.40, 22.00,32.00L 320.00,416.00 c0.00,17.60-14.40,32.00-32.00,32.00l-96.00,0.00 l0.00-224.00 l 96.00,0.00 C 305.60,224.00, 320.00,238.40, 320.00,256.00z
		 M 224.00,416.00l 64.00,0.00 l0.00-64.00 l-64.00,0.00 L 224.00,416.00 z M 224.00,320.00l 64.00,0.00 l0.00-64.00 l-64.00,0.00 L 224.00,320.00 z" />
<glyph unicode="&#xe025;" d="M 224.00,224.00l-64.00,0.00 l0.00,64.00 l 64.00,0.00 l0.00,64.00 l 64.00,0.00 l0.00-64.00 l 64.00,0.00 l0.00-64.00 l-64.00,0.00 l0.00-64.00 l-64.00,0.00 L 224.00,224.00 z M 480.00,192.00l0.00-160.00 L 32.00,32.00 L 32.00,192.00 l 64.00,0.00 l0.00-96.00 l 320.00,0.00 l0.00,96.00 L 480.00,192.00 z" />
<glyph unicode="&#xe017;" d="M 208.00,128.00L 112.00,224.00L 208.00,320.00L 176.00,352.00L 48.00,224.00L 176.00,96.00 zM 336.00,352.00L 304.00,320.00L 400.00,224.00L 304.00,128.00L 336.00,96.00L 464.00,224.00 z" />
<glyph unicode="&#xe016;" d="M 224.00,128.00l 64.00,0.00 l0.00-64.00 l-64.00,0.00 L 224.00,128.00 z M 352.00,352.00c 17.673,0.00, 32.00-14.327, 32.00-32.00l0.00-83.00 l-114.00-77.00l-46.00,0.00 l0.00,32.00 l 96.00,64.00l0.00,32.00 L 160.00,288.00 l0.00,64.00 L 352.00,352.00 z M 256.00,448.00
	c-59.833,0.00-116.083-23.30-158.392-65.608C 55.301,340.083, 32.00,283.833, 32.00,224.00c0.00-59.832, 23.301-116.084, 65.608-158.392
	C 139.917,23.30, 196.167,0.00, 256.00,0.00c 59.832,0.00, 116.084,23.30, 158.392,65.608C 456.70,107.916, 480.00,164.168, 480.00,224.00
	c0.00,59.833-23.30,116.083-65.608,158.392C 372.084,424.70, 315.832,448.00, 256.00,448.00z" />
<glyph unicode="&#xe014;" d="M 448.00,416.00L 64.00,416.00 c-17.60,0.00-32.00-14.40-32.00-32.00l0.00-320.00 c0.00-17.60, 14.40-32.00, 32.00-32.00l 384.00,0.00 c 17.60,0.00, 32.00,14.40, 32.00,32.00L 480.00,384.00 C 480.00,401.60, 465.60,416.00, 448.00,416.00z
		 M 448.00,64.058c-0.006-0.007-0.015-0.014-0.021-0.021L 352.00,224.00l-80.00-64.00L 160.00,304.00L 64.016,64.042c-0.005,0.005-0.011,0.011-0.016,0.016
		L 64.00,383.943 c 0.017,0.02, 0.038,0.041, 0.057,0.057l 383.885,0.00 c 0.02-0.017, 0.041-0.038, 0.058-0.058L 448.00,64.058 zM 320.00,304.00A48.00,48.00 1620.00 1 1 416.00,304A48.00,48.00 1620.00 1 1 320.00,304z" />
<glyph unicode="&#xe015;" d="M 448.00,416.00L 64.00,416.00 c-17.60,0.00-32.00-14.40-32.00-32.00l0.00-320.00 c0.00-17.60, 14.40-32.00, 32.00-32.00l 384.00,0.00 c 17.60,0.00, 32.00,14.40, 32.00,32.00L 480.00,384.00 C 480.00,401.60, 465.60,416.00, 448.00,416.00z
	 M 128.00,64.00L 64.00,64.00 l0.00,64.00 l 64.00,0.00 L 128.00,64.00 z M 128.00,192.00L 64.00,192.00 l0.00,64.00 l 64.00,0.00 L 128.00,192.00 z M 128.00,320.00L 64.00,320.00 L 64.00,384.00 l 64.00,0.00 L 128.00,320.00 z M 352.00,64.00L 160.00,64.00 L 160.00,384.00 l 192.00,0.00 L 352.00,64.00 z M 448.00,64.00l-64.00,0.00 l0.00,64.00 l 64.00,0.00 L 448.00,64.00 z
	 M 448.00,192.00l-64.00,0.00 l0.00,64.00 l 64.00,0.00 L 448.00,192.00 z M 448.00,320.00l-64.00,0.00 L 384.00,384.00 l 64.00,0.00 L 448.00,320.00 zM 192.00,320.00L 192.00,128.00L 336.00,224.00 z" />
<glyph unicode="&#xe018;" d="M 38.899,327.688l 40.707-25.441C 105.007,342.804, 144.00,373.974, 190.21,389.37l-15.183,45.547
		C 118.153,415.968, 70.163,377.604, 38.899,327.688zM 336.973,434.917L 321.79,389.37c 46.211-15.396, 85.202-46.566, 110.604-87.124l 40.706,25.441
		C 441.837,377.604, 393.847,415.968, 336.973,434.917zM 303.987,127.996c-2.404,0.00-4.846,0.545-7.143,1.693L 224.00,166.111L 224.00,272.00 c0.00,8.836, 7.164,16.00, 16.00,16.00s 16.00-7.164, 16.00-16.00l0.00-86.111 
		l 55.155-27.578c 7.903-3.951, 11.107-13.562, 7.155-21.466C 315.508,131.238, 309.856,127.997, 303.987,127.996zM 256.00,384.00C 149.961,384.00, 64.00,298.039, 64.00,192.00c0.00-106.039, 85.961-192.00, 192.00-192.00c 106.039,0.00, 192.00,85.961, 192.00,192.00
	C 448.00,298.039, 362.039,384.00, 256.00,384.00z M 256.00,48.00c-79.529,0.00-144.00,64.471-144.00,144.00c0.00,79.529, 64.471,144.00, 144.00,144.00c 79.529,0.00, 144.00-64.471, 144.00-144.00
	C 400.00,112.471, 335.529,48.00, 256.00,48.00z" />
<glyph unicode="&#xe019;" d="M 32.00,252.127c 22.659,24.96, 48.581,46.18, 76.636,62.562C 153.802,341.061, 204.759,355.00, 256.00,355.00
		c 51.24,0.00, 102.198-13.939, 147.363-40.312c 28.056-16.382, 53.978-37.602, 76.637-62.562l0.00,58.716 
		c-16.505,14.059-34.062,26.57-52.434,37.297C 375.063,378.796, 315.737,395.00, 256.00,395.00s-119.064-16.204-171.567-46.86
		C 66.062,337.413, 48.505,324.901, 32.00,310.842L 32.00,252.127 zM 256.00,320.00c-91.598,0.00-172.919-50.278-224.00-128.00c 51.081-77.724, 132.402-128.00, 224.00-128.00c 91.598,0.00, 172.919,50.276, 224.00,128.00
	C 428.919,269.722, 347.598,320.00, 256.00,320.00z M 256.00,224.00c0.00-17.673-14.327-32.00-32.00-32.00s-32.00,14.327-32.00,32.00c0.00,17.674, 14.327,32.00, 32.00,32.00
	S 256.00,241.674, 256.00,224.00z M 364.033,131.669C 330.316,111.982, 293.969,102.00, 256.00,102.00s-74.316,9.982-108.033,29.669
	C 122.19,146.721, 98.659,167.324, 78.91,192.00c 19.749,24.675, 43.28,45.279, 69.058,60.33c 6.638,3.876, 13.379,7.37, 20.213,10.491
	C 162.925,250.95, 160.00,237.817, 160.00,224.00c0.00-53.02, 42.981-96.00, 96.00-96.00c 53.02,0.00, 96.00,42.98, 96.00,96.00c0.00,13.817-2.925,26.95-8.18,38.821
	c 6.834-3.122, 13.575-6.615, 20.213-10.491c 25.777-15.051, 49.308-35.655, 69.058-60.33
	C 413.342,167.324, 389.811,146.721, 364.033,131.669z" />
<glyph unicode="&#xe01a;" d="M 325.584,338.083C 313.278,379.064, 311.146,384.00, 272.00,384.00l-32.00,0.00 c-39.809,0.00-41.332-5.076-54.209-48.00c0.00-0.001,0.00-0.001-0.001-0.002
	L 113.791,96.00l 56.818,0.00 l 28.80,96.00l 113.183,0.00 l 28.80-96.00l 56.815,0.00 L 325.584,338.083z M 218.609,256.00l 19.20,68.00c 5.043,16.809, 18.19,15.00, 18.19,15.00
	s 13.147,1.809, 18.19-15.00l 0.002,0.00 l 19.20-68.00L 218.609,256.00 z" />
<glyph unicode="&#xe028;" d="M 288.00,448.00 C 411.712,448.00 512.00,347.712 512.00,224.00 C 512.00,100.288 411.712,0.00 288.00,0.00 L 288.00,48.00 C 335.012,48.00 379.209,66.307 412.451,99.549 C 445.693,132.791 464.00,176.988 464.00,224.00 C 464.00,271.011 445.693,315.209 412.451,348.451 C 379.209,381.693 335.012,400.00 288.00,400.00 C 240.989,400.00 196.791,381.693 163.549,348.451 C 137.979,322.882 121.258,290.828 114.896,256.00 L 208.00,256.00 L 96.00,128.00 L -16.00,256.00 L 66.285,256.00 C 81.815,364.551 175.154,448.00 288.00,448.00 ZM 384.00,256.00 L 384.00,192.00 L 256.00,192.00 L 256.00,352.00 L 320.00,352.00 L 320.00,256.00 Z" />
<glyph unicode="&#xe002;" d="M 512.00,183.771l0.00,80.458 l-79.572,7.957c-4.093,15.021-10.044,29.274-17.605,42.49l 52.298,63.919L 410.595,435.12l-63.918-52.298
	c-13.217,7.562-27.471,13.513-42.491,17.604L 296.229,480.00l-80.458,0.00 l-7.957-79.573c-15.021-4.093-29.274-10.043-42.49-17.604
	L 101.405,435.12L 44.88,378.595l 52.298-63.918c-7.562-13.216-13.513-27.47-17.605-42.49L0.00,264.229l0.00-80.458 l 79.573-7.957
	c 4.093-15.021, 10.043-29.274, 17.605-42.491L 44.88,69.405l 56.524-56.524l 63.919,52.298c 13.216-7.562, 27.47-13.514, 42.49-17.605
	L 215.771-32.00l 80.458,0.00 l 7.957,79.572c 15.021,4.093, 29.274,10.044, 42.491,17.605l 63.918-52.298l 56.524,56.524l-52.298,63.918
	c 7.562,13.217, 13.514,27.471, 17.605,42.49L 512.00,183.771z M 352.00,192.00l-64.00-64.00l-64.00,0.00 l-64.00,64.00l0.00,64.00 l 64.00,64.00l 64.00,0.00 l 64.00-64.00L 352.00,192.00 z" />
<glyph unicode="&#xe01f;" d="M 384.00,377.00 L 384.00,352.00 L 448.00,352.00 L 448.00,320.00 L 352.00,320.00 L 352.00,393.00 L 416.00,423.00 L 416.00,448.00 L 352.00,448.00 L 352.00,480.00 L 448.00,480.00 L 448.00,407.00 ZM 338.00,352.00L 270.00,352.00L 176.00,258.00L 82.00,352.00L 14.00,352.00L 142.00,224.00L 14.00,96.00L 82.00,96.00L 176.00,190.00L 270.00,96.00L 338.00,96.00L 210.00,224.00 z" />
<glyph unicode="&#xe01e;" d="M 384.00,25.00 L 384.00,0.00 L 448.00,0.00 L 448.00-32.00 L 352.00-32.00 L 352.00,41.00 L 416.00,71.00 L 416.00,96.00 L 352.00,96.00 L 352.00,128.00 L 448.00,128.00 L 448.00,55.00 ZM 338.00,352.00L 270.00,352.00L 176.00,258.00L 82.00,352.00L 14.00,352.00L 142.00,224.00L 14.00,96.00L 82.00,96.00L 176.00,190.00L 270.00,96.00L 338.00,96.00L 210.00,224.00 z" />
<glyph unicode="&#x20;" horiz-adv-x="256" />
<glyph class="hidden" unicode="&#xf000;" d="M0,480L 512 -32L0 -32 z" horiz-adv-x="0" />
</font></defs></svg>
